<?xml version="1.0" encoding="UTF-8"?>
<symbol version="7" name="register32">
    <symboltype>BLOCK</symboltype>
    <timestamp>2017-12-18T16:45:42</timestamp>
    <pin polarity="Input" x="0" y="-224" name="ld" />
    <pin polarity="Input" x="0" y="-160" name="clr" />
    <pin polarity="Input" x="0" y="-96" name="clk" />
    <pin polarity="Input" x="0" y="-32" name="d(31:0)" />
    <pin polarity="Output" x="384" y="-224" name="q(31:0)" />
    <graph>
        <rect width="256" x="64" y="-256" height="256" />
        <attrtext style="alignment:BCENTER;fontsize:56;fontname:Arial" attrname="SymbolName" x="192" y="-264" type="symbol" />
        <attrtext style="fontsize:24;fontname:Arial" attrname="PinName" x="72" y="-224" type="pin ld" />
        <line x2="0" y1="-224" y2="-224" x1="64" />
        <attrtext style="fontsize:24;fontname:Arial" attrname="PinName" x="72" y="-160" type="pin clr" />
        <line x2="0" y1="-160" y2="-160" x1="64" />
        <attrtext style="fontsize:24;fontname:Arial" attrname="PinName" x="72" y="-96" type="pin clk" />
        <line x2="0" y1="-96" y2="-96" x1="64" />
        <attrtext style="fontsize:24;fontname:Arial" attrname="PinName" x="72" y="-32" type="pin d(31:0)" />
        <rect width="64" x="0" y="-44" height="24" />
        <line x2="0" y1="-32" y2="-32" x1="64" />
        <attrtext style="alignment:RIGHT;fontsize:24;fontname:Arial" attrname="PinName" x="312" y="-224" type="pin q(31:0)" />
        <rect width="64" x="320" y="-236" height="24" />
        <line x2="384" y1="-224" y2="-224" x1="320" />
    </graph>
</symbol>
